Analyzing the amesHousing2011 Data
…
Looking at another contingency table between House Style and Total Number of Rooms, we can see that one-stories tend to have less rooms than two-stories, as expected. These variables can be used to find outliers in the data.

        10   9   8   7   6   5   4   3   2   1
  Typ   26 107 345 578 698 730 193  32   8   1
  Min1   0   0   1   7  12  34   7   3   1   0
  Min2   0   0   1   5  12  32  18   1   1   0
  Mod    0   0   1   4   3  17   7   2   0   1
  Maj1   0   0   2   5   3   6   0   0   2   1
  Maj2   0   0   0   0   2   4   0   2   1   0
  Sev    0   0   0   0   1   1   0   0   0   0
  Sal    0   0   0   0   0   0   1   0   0   1

Similarly, the Overall Quality can be compared to Home Functionality, and a higher functionality leads to a higher overall quality. As the functionality decreases, the overall quality also decreases. By comparing these two, outliers can be found, such as the Salvage Only houses and the Severe Damage houses.

# A tibble: 118 × 3
   YearBuilt avPriceByClass     n
       <dbl>          <dbl> <int>
 1      1893        325000      1
 2      2008        320359.    47
 3      1892        291250      2
 4      2010        283116      3
 5      2009        277097.    25
 6      2007        266677.   108
 7      2006        259624.   138
 8      1995        247500     31
 9      2005        241994.   142
10      1981        241150     10
# ℹ 108 more rows
…
